{
    "name": "280-layers",
    "nodes": [
        {
            "children": [],
            "frame_index": 0,
            "name": "\u0413\u0440\u0443\u043f\u043f\u0430 \u0441\u043b\u043e\u0451\u0432.png",
            "node_path": "\u0413\u0440\u0443\u043f\u043f\u0430 \u0441\u043b\u043e\u0451\u0432.png",
            "offset": [
                -885,
                658
            ],
            "opacity": 1.0,
            "pivot_offset": [
                0.0,
                0.0
            ],
            "position": [
                554,
                255
            ],
            "resource_path": "sprites/\u0413\u0440\u0443\u043f\u043f\u0430 \u0441\u043b\u043e\u0451\u0432.png",
            "rotation": 0.0,
            "scale": [
                1.0,
                1.0
            ],
            "tiles_x": 1,
            "tiles_y": 2,
            "type": "SPRITE",
            "z": 0
        },
        {
            "children": [],
            "frame_index": 0,
            "name": "\u0421\u043b\u043e\u0439 14 (\u0432\u0441\u0442\u0430\u0432\u043b\u0435\u043d\u043e).png",
            "node_path": "\u0421\u043b\u043e\u0439 14 (\u0432\u0441\u0442\u0430\u0432\u043b\u0435\u043d\u043e).png",
            "offset": [
                -885,
                658
            ],
            "opacity": 1.0,
            "pivot_offset": [
                0.0,
                0.0
            ],
            "position": [
                0,
                0
            ],
            "resource_path": "sprites/\u0421\u043b\u043e\u0439 14 (\u0432\u0441\u0442\u0430\u0432\u043b\u0435\u043d\u043e).png",
            "rotation": 0.0,
            "scale": [
                1.0,
                1.0
            ],
            "tiles_x": 1,
            "tiles_y": 1,
            "type": "SPRITE",
            "z": -1
        }
    ]
}