{
    "name": "330-L",
    "nodes": [
        {
            "children": [],
            "frame_index": 0,
            "name": "\u043b\u0430\u043f\u04302 \u0421\u0432\u0435\u0434\u0435\u043d\u043e.png",
            "node_path": "\u043b\u0430\u043f\u04302 \u0421\u0432\u0435\u0434\u0435\u043d\u043e.png",
            "offset": [
                -1000,
                1090
            ],
            "opacity": 1.0,
            "pivot_offset": [
                0.0,
                0.0
            ],
            "position": [
                837,
                1559
            ],
            "resource_path": "sprites/\u043b\u0430\u043f\u04302 \u0421\u0432\u0435\u0434\u0435\u043d\u043e.png",
            "rotation": 0.0,
            "scale": [
                1.0,
                1.0
            ],
            "tiles_x": 1,
            "tiles_y": 1,
            "type": "SPRITE",
            "z": 0
        },
        {
            "children": [],
            "frame_index": 0,
            "name": "1 \u0421\u0432\u0435\u0434\u0435\u043d\u043e.png",
            "node_path": "1 \u0421\u0432\u0435\u0434\u0435\u043d\u043e.png",
            "offset": [
                -1000,
                1090
            ],
            "opacity": 1.0,
            "pivot_offset": [
                0.0,
                0.0
            ],
            "position": [
                160,
                998
            ],
            "resource_path": "sprites/1 \u0421\u0432\u0435\u0434\u0435\u043d\u043e.png",
            "rotation": 0.0,
            "scale": [
                1.0,
                1.0
            ],
            "tiles_x": 1,
            "tiles_y": 1,
            "type": "SPRITE",
            "z": -1
        },
        {
            "children": [],
            "frame_index": 0,
            "name": "2 \u0421\u0432\u0435\u0434\u0435\u043d\u043e.png",
            "node_path": "2 \u0421\u0432\u0435\u0434\u0435\u043d\u043e.png",
            "offset": [
                -1000,
                1090
            ],
            "opacity": 1.0,
            "pivot_offset": [
                0.0,
                0.0
            ],
            "position": [
                496,
                1419
            ],
            "resource_path": "sprites/2 \u0421\u0432\u0435\u0434\u0435\u043d\u043e.png",
            "rotation": 0.0,
            "scale": [
                1.0,
                1.0
            ],
            "tiles_x": 1,
            "tiles_y": 1,
            "type": "SPRITE",
            "z": -2
        },
        {
            "children": [],
            "frame_index": 0,
            "name": "Layer 42 \u0421\u0432\u0435\u0434\u0435\u043d\u043e.png",
            "node_path": "Layer 42 \u0421\u0432\u0435\u0434\u0435\u043d\u043e.png",
            "offset": [
                -1000,
                1090
            ],
            "opacity": 1.0,
            "pivot_offset": [
                0.0,
                0.0
            ],
            "position": [
                212,
                1290
            ],
            "resource_path": "sprites/Layer 42 \u0421\u0432\u0435\u0434\u0435\u043d\u043e.png",
            "rotation": 0.0,
            "scale": [
                1.0,
                1.0
            ],
            "tiles_x": 1,
            "tiles_y": 1,
            "type": "SPRITE",
            "z": -3
        },
        {
            "children": [],
            "frame_index": 0,
            "name": "\u0413\u0440\u0443\u043f\u043f\u0430 \u0441\u043b\u043e\u0451\u0432.png",
            "node_path": "\u0413\u0440\u0443\u043f\u043f\u0430 \u0441\u043b\u043e\u0451\u0432.png",
            "offset": [
                -1000,
                1090
            ],
            "opacity": 1.0,
            "pivot_offset": [
                0.0,
                0.0
            ],
            "position": [
                1067,
                627
            ],
            "resource_path": "sprites/\u0413\u0440\u0443\u043f\u043f\u0430 \u0441\u043b\u043e\u0451\u0432.png",
            "rotation": 0.0,
            "scale": [
                1.0,
                1.0
            ],
            "tiles_x": 1,
            "tiles_y": 3,
            "type": "SPRITE",
            "z": -4
        },
        {
            "children": [],
            "frame_index": 0,
            "name": "\u0437\u0440\u0430\u0447\u043e\u043a \u0421\u0432\u0435\u0434\u0435\u043d\u043e.png",
            "node_path": "\u0437\u0440\u0430\u0447\u043e\u043a \u0421\u0432\u0435\u0434\u0435\u043d\u043e.png",
            "offset": [
                -1000,
                1090
            ],
            "opacity": 1.0,
            "pivot_offset": [
                0.0,
                0.0
            ],
            "position": [
                1105,
                671
            ],
            "resource_path": "sprites/\u0437\u0440\u0430\u0447\u043e\u043a \u0421\u0432\u0435\u0434\u0435\u043d\u043e.png",
            "rotation": 0.0,
            "scale": [
                1.0,
                1.0
            ],
            "tiles_x": 1,
            "tiles_y": 1,
            "type": "SPRITE",
            "z": -5
        },
        {
            "children": [],
            "frame_index": 0,
            "name": "Layer 64(pasted).png",
            "node_path": "Layer 64(pasted).png",
            "offset": [
                -1000,
                1090
            ],
            "opacity": 1.0,
            "pivot_offset": [
                0.0,
                0.0
            ],
            "position": [
                1070,
                633
            ],
            "resource_path": "sprites/Layer 64(pasted).png",
            "rotation": 0.0,
            "scale": [
                1.0,
                1.0
            ],
            "tiles_x": 1,
            "tiles_y": 1,
            "type": "SPRITE",
            "z": -6
        },
        {
            "children": [],
            "frame_index": 0,
            "name": "\u0421\u043b\u043e\u044e 107 \u0421\u0432\u0435\u0434\u0435\u043d\u043e.png",
            "node_path": "\u0421\u043b\u043e\u044e 107 \u0421\u0432\u0435\u0434\u0435\u043d\u043e.png",
            "offset": [
                -1000,
                1090
            ],
            "opacity": 1.0,
            "pivot_offset": [
                0.0,
                0.0
            ],
            "position": [
                891,
                797
            ],
            "resource_path": "sprites/\u0421\u043b\u043e\u044e 107 \u0421\u0432\u0435\u0434\u0435\u043d\u043e.png",
            "rotation": 0.0,
            "scale": [
                1.0,
                1.0
            ],
            "tiles_x": 1,
            "tiles_y": 1,
            "type": "SPRITE",
            "z": -7
        },
        {
            "children": [],
            "frame_index": 0,
            "name": "\u044f\u0437\u044b\u043a \u0421\u0432\u0435\u0434\u0435\u043d\u043e.png",
            "node_path": "\u044f\u0437\u044b\u043a \u0421\u0432\u0435\u0434\u0435\u043d\u043e.png",
            "offset": [
                -1000,
                1090
            ],
            "opacity": 1.0,
            "pivot_offset": [
                0.0,
                0.0
            ],
            "position": [
                951,
                596
            ],
            "resource_path": "sprites/\u044f\u0437\u044b\u043a \u0421\u0432\u0435\u0434\u0435\u043d\u043e.png",
            "rotation": 0.0,
            "scale": [
                1.0,
                1.0
            ],
            "tiles_x": 1,
            "tiles_y": 1,
            "type": "SPRITE",
            "z": -8
        },
        {
            "children": [],
            "frame_index": 0,
            "name": "1 \u0421\u0432\u0435\u0434\u0435\u043d\u043e #1.png",
            "node_path": "1 \u0421\u0432\u0435\u0434\u0435\u043d\u043e #1.png",
            "offset": [
                -1000,
                1090
            ],
            "opacity": 1.0,
            "pivot_offset": [
                0.0,
                0.0
            ],
            "position": [
                900,
                498
            ],
            "resource_path": "sprites/1 \u0421\u0432\u0435\u0434\u0435\u043d\u043e #1.png",
            "rotation": 0.0,
            "scale": [
                1.0,
                1.0
            ],
            "tiles_x": 1,
            "tiles_y": 1,
            "type": "SPRITE",
            "z": -9
        },
        {
            "children": [],
            "frame_index": 0,
            "name": "2 \u0421\u0432\u0435\u0434\u0435\u043d\u043e #1.png",
            "node_path": "2 \u0421\u0432\u0435\u0434\u0435\u043d\u043e #1.png",
            "offset": [
                -1000,
                1090
            ],
            "opacity": 1.0,
            "pivot_offset": [
                0.0,
                0.0
            ],
            "position": [
                853,
                612
            ],
            "resource_path": "sprites/2 \u0421\u0432\u0435\u0434\u0435\u043d\u043e #1.png",
            "rotation": 0.0,
            "scale": [
                1.0,
                1.0
            ],
            "tiles_x": 1,
            "tiles_y": 1,
            "type": "SPRITE",
            "z": -10
        },
        {
            "children": [],
            "frame_index": 0,
            "name": "\u0421\u043b\u043e\u044e 108 \u0421\u0432\u0435\u0434\u0435\u043d\u043e.png",
            "node_path": "\u0421\u043b\u043e\u044e 108 \u0421\u0432\u0435\u0434\u0435\u043d\u043e.png",
            "offset": [
                -1000,
                1090
            ],
            "opacity": 1.0,
            "pivot_offset": [
                0.0,
                0.0
            ],
            "position": [
                443,
                449
            ],
            "resource_path": "sprites/\u0421\u043b\u043e\u044e 108 \u0421\u0432\u0435\u0434\u0435\u043d\u043e.png",
            "rotation": 0.0,
            "scale": [
                1.0,
                1.0
            ],
            "tiles_x": 1,
            "tiles_y": 1,
            "type": "SPRITE",
            "z": -11
        },
        {
            "children": [],
            "frame_index": 0,
            "name": "\u043a\u0440\u044b\u043b\u043e1 \u0421\u0432\u0435\u0434\u0435\u043d\u043e.png",
            "node_path": "\u043a\u0440\u044b\u043b\u043e1 \u0421\u0432\u0435\u0434\u0435\u043d\u043e.png",
            "offset": [
                -1000,
                1090
            ],
            "opacity": 1.0,
            "pivot_offset": [
                0.0,
                0.0
            ],
            "position": [
                1030,
                228
            ],
            "resource_path": "sprites/\u043a\u0440\u044b\u043b\u043e1 \u0421\u0432\u0435\u0434\u0435\u043d\u043e.png",
            "rotation": 0.0,
            "scale": [
                1.0,
                1.0
            ],
            "tiles_x": 1,
            "tiles_y": 1,
            "type": "SPRITE",
            "z": -12
        },
        {
            "children": [],
            "frame_index": 0,
            "name": "c\u0443\u043c\u043a\u0430 \u0421\u0432\u0435\u0434\u0435\u043d\u043e.png",
            "node_path": "c\u0443\u043c\u043a\u0430 \u0421\u0432\u0435\u0434\u0435\u043d\u043e.png",
            "offset": [
                -1000,
                1090
            ],
            "opacity": 1.0,
            "pivot_offset": [
                0.0,
                0.0
            ],
            "position": [
                474,
                816
            ],
            "resource_path": "sprites/c\u0443\u043c\u043a\u0430 \u0421\u0432\u0435\u0434\u0435\u043d\u043e.png",
            "rotation": 0.0,
            "scale": [
                1.0,
                1.0
            ],
            "tiles_x": 1,
            "tiles_y": 1,
            "type": "SPRITE",
            "z": -13
        },
        {
            "children": [],
            "frame_index": 0,
            "name": "\u0421\u043b\u043e\u044e 111 \u0421\u0432\u0435\u0434\u0435\u043d\u043e.png",
            "node_path": "\u0421\u043b\u043e\u044e 111 \u0421\u0432\u0435\u0434\u0435\u043d\u043e.png",
            "offset": [
                -1000,
                1090
            ],
            "opacity": 1.0,
            "pivot_offset": [
                0.0,
                0.0
            ],
            "position": [
                371,
                24
            ],
            "resource_path": "sprites/\u0421\u043b\u043e\u044e 111 \u0421\u0432\u0435\u0434\u0435\u043d\u043e.png",
            "rotation": 0.0,
            "scale": [
                1.0,
                1.0
            ],
            "tiles_x": 1,
            "tiles_y": 1,
            "type": "SPRITE",
            "z": -14
        },
        {
            "children": [],
            "frame_index": 0,
            "name": "\u043b\u044f\u043c\u043a\u0430 \u0421\u0432\u0435\u0434\u0435\u043d\u043e.png",
            "node_path": "\u043b\u044f\u043c\u043a\u0430 \u0421\u0432\u0435\u0434\u0435\u043d\u043e.png",
            "offset": [
                -1000,
                1090
            ],
            "opacity": 1.0,
            "pivot_offset": [
                0.0,
                0.0
            ],
            "position": [
                663,
                820
            ],
            "resource_path": "sprites/\u043b\u044f\u043c\u043a\u0430 \u0421\u0432\u0435\u0434\u0435\u043d\u043e.png",
            "rotation": 0.0,
            "scale": [
                1.0,
                1.0
            ],
            "tiles_x": 1,
            "tiles_y": 1,
            "type": "SPRITE",
            "z": -15
        },
        {
            "children": [],
            "frame_index": 0,
            "name": "\u0445\u0432\u043e\u0441\u0442 \u0421\u0432\u0435\u0434\u0435\u043d\u043e.png",
            "node_path": "\u0445\u0432\u043e\u0441\u0442 \u0421\u0432\u0435\u0434\u0435\u043d\u043e.png",
            "offset": [
                -1000,
                1090
            ],
            "opacity": 1.0,
            "pivot_offset": [
                0.0,
                0.0
            ],
            "position": [
                28,
                1381
            ],
            "resource_path": "sprites/\u0445\u0432\u043e\u0441\u0442 \u0421\u0432\u0435\u0434\u0435\u043d\u043e.png",
            "rotation": 0.0,
            "scale": [
                1.0,
                1.0
            ],
            "tiles_x": 1,
            "tiles_y": 1,
            "type": "SPRITE",
            "z": -16
        }
    ]
}