{
    "name": "240-l",
    "nodes": [
        {
            "children": [],
            "frame_index": 0,
            "name": "shlapa-1 \u0421\u0432\u0435\u0434\u0435\u043d\u043e.png",
            "node_path": "shlapa-1 \u0421\u0432\u0435\u0434\u0435\u043d\u043e.png",
            "offset": [
                -816,
                406
            ],
            "opacity": 1.0,
            "pivot_offset": [
                0.0,
                0.0
            ],
            "position": [
                665,
                0
            ],
            "resource_path": "sprites/shlapa-1 \u0421\u0432\u0435\u0434\u0435\u043d\u043e.png",
            "rotation": 0.0,
            "scale": [
                1.0,
                1.0
            ],
            "tiles_x": 1,
            "tiles_y": 1,
            "type": "SPRITE",
            "z": 0
        },
        {
            "children": [],
            "frame_index": 0,
            "name": "locon-1 \u0421\u0432\u0435\u0434\u0435\u043d\u043e.png",
            "node_path": "locon-1 \u0421\u0432\u0435\u0434\u0435\u043d\u043e.png",
            "offset": [
                -816,
                406
            ],
            "opacity": 1.0,
            "pivot_offset": [
                0.0,
                0.0
            ],
            "position": [
                999,
                22
            ],
            "resource_path": "sprites/locon-1 \u0421\u0432\u0435\u0434\u0435\u043d\u043e.png",
            "rotation": 0.0,
            "scale": [
                1.0,
                1.0
            ],
            "tiles_x": 1,
            "tiles_y": 1,
            "type": "SPRITE",
            "z": -1
        },
        {
            "children": [],
            "frame_index": 0,
            "name": "brovi-1.png",
            "node_path": "brovi-1.png",
            "offset": [
                -816,
                406
            ],
            "opacity": 1.0,
            "pivot_offset": [
                0.0,
                0.0
            ],
            "position": [
                984,
                109
            ],
            "resource_path": "sprites/brovi-1.png",
            "rotation": 0.0,
            "scale": [
                1.0,
                1.0
            ],
            "tiles_x": 1,
            "tiles_y": 1,
            "type": "SPRITE",
            "z": -2
        },
        {
            "children": [],
            "frame_index": 0,
            "name": "brovi-2.png",
            "node_path": "brovi-2.png",
            "offset": [
                -816,
                406
            ],
            "opacity": 1.0,
            "pivot_offset": [
                0.0,
                0.0
            ],
            "position": [
                895,
                133
            ],
            "resource_path": "sprites/brovi-2.png",
            "rotation": 0.0,
            "scale": [
                1.0,
                1.0
            ],
            "tiles_x": 1,
            "tiles_y": 1,
            "type": "SPRITE",
            "z": -3
        },
        {
            "children": [],
            "frame_index": 0,
            "name": "veco-1.png",
            "node_path": "veco-1.png",
            "offset": [
                -816,
                406
            ],
            "opacity": 1.0,
            "pivot_offset": [
                0.0,
                0.0
            ],
            "position": [
                993,
                110
            ],
            "resource_path": "sprites/veco-1.png",
            "rotation": 0.0,
            "scale": [
                1.0,
                1.0
            ],
            "tiles_x": 1,
            "tiles_y": 1,
            "type": "SPRITE",
            "z": -4
        },
        {
            "children": [],
            "frame_index": 0,
            "name": "veco-1.1.png",
            "node_path": "veco-1.1.png",
            "offset": [
                -816,
                406
            ],
            "opacity": 1.0,
            "pivot_offset": [
                0.0,
                0.0
            ],
            "position": [
                999,
                145
            ],
            "resource_path": "sprites/veco-1.1.png",
            "rotation": 0.0,
            "scale": [
                1.0,
                1.0
            ],
            "tiles_x": 1,
            "tiles_y": 1,
            "type": "SPRITE",
            "z": -5
        },
        {
            "children": [],
            "frame_index": 0,
            "name": "glaz-2.png",
            "node_path": "glaz-2.png",
            "offset": [
                -816,
                406
            ],
            "opacity": 1.0,
            "pivot_offset": [
                0.0,
                0.0
            ],
            "position": [
                1012,
                146
            ],
            "resource_path": "sprites/glaz-2.png",
            "rotation": 0.0,
            "scale": [
                1.0,
                1.0
            ],
            "tiles_x": 1,
            "tiles_y": 1,
            "type": "SPRITE",
            "z": -6
        },
        {
            "children": [],
            "frame_index": 0,
            "name": "veco-2.png",
            "node_path": "veco-2.png",
            "offset": [
                -816,
                406
            ],
            "opacity": 1.0,
            "pivot_offset": [
                0.0,
                0.0
            ],
            "position": [
                907,
                135
            ],
            "resource_path": "sprites/veco-2.png",
            "rotation": 0.0,
            "scale": [
                1.0,
                1.0
            ],
            "tiles_x": 1,
            "tiles_y": 1,
            "type": "SPRITE",
            "z": -7
        },
        {
            "children": [],
            "frame_index": 0,
            "name": "veco-2.1.png",
            "node_path": "veco-2.1.png",
            "offset": [
                -816,
                406
            ],
            "opacity": 1.0,
            "pivot_offset": [
                0.0,
                0.0
            ],
            "position": [
                913,
                185
            ],
            "resource_path": "sprites/veco-2.1.png",
            "rotation": 0.0,
            "scale": [
                1.0,
                1.0
            ],
            "tiles_x": 1,
            "tiles_y": 1,
            "type": "SPRITE",
            "z": -8
        },
        {
            "children": [],
            "frame_index": 0,
            "name": "glaz-1.png",
            "node_path": "glaz-1.png",
            "offset": [
                -816,
                406
            ],
            "opacity": 1.0,
            "pivot_offset": [
                0.0,
                0.0
            ],
            "position": [
                917,
                171
            ],
            "resource_path": "sprites/glaz-1.png",
            "rotation": 0.0,
            "scale": [
                1.0,
                1.0
            ],
            "tiles_x": 1,
            "tiles_y": 1,
            "type": "SPRITE",
            "z": -9
        },
        {
            "children": [],
            "frame_index": 0,
            "name": "rot \u0421\u0432\u0435\u0434\u0435\u043d\u043e.png",
            "node_path": "rot \u0421\u0432\u0435\u0434\u0435\u043d\u043e.png",
            "offset": [
                -816,
                406
            ],
            "opacity": 1.0,
            "pivot_offset": [
                0.0,
                0.0
            ],
            "position": [
                956,
                230
            ],
            "resource_path": "sprites/rot \u0421\u0432\u0435\u0434\u0435\u043d\u043e.png",
            "rotation": 0.0,
            "scale": [
                1.0,
                1.0
            ],
            "tiles_x": 1,
            "tiles_y": 1,
            "type": "SPRITE",
            "z": -10
        },
        {
            "children": [],
            "frame_index": 0,
            "name": "golova \u0421\u0432\u0435\u0434\u0435\u043d\u043e.png",
            "node_path": "golova \u0421\u0432\u0435\u0434\u0435\u043d\u043e.png",
            "offset": [
                -816,
                406
            ],
            "opacity": 1.0,
            "pivot_offset": [
                0.0,
                0.0
            ],
            "position": [
                884,
                19
            ],
            "resource_path": "sprites/golova \u0421\u0432\u0435\u0434\u0435\u043d\u043e.png",
            "rotation": 0.0,
            "scale": [
                1.0,
                1.0
            ],
            "tiles_x": 1,
            "tiles_y": 1,
            "type": "SPRITE",
            "z": -11
        },
        {
            "children": [],
            "frame_index": 0,
            "name": "locon-2 \u0421\u0432\u0435\u0434\u0435\u043d\u043e.png",
            "node_path": "locon-2 \u0421\u0432\u0435\u0434\u0435\u043d\u043e.png",
            "offset": [
                -816,
                406
            ],
            "opacity": 1.0,
            "pivot_offset": [
                0.0,
                0.0
            ],
            "position": [
                874,
                42
            ],
            "resource_path": "sprites/locon-2 \u0421\u0432\u0435\u0434\u0435\u043d\u043e.png",
            "rotation": 0.0,
            "scale": [
                1.0,
                1.0
            ],
            "tiles_x": 1,
            "tiles_y": 1,
            "type": "SPRITE",
            "z": -12
        },
        {
            "children": [],
            "frame_index": 0,
            "name": "locon-3 \u0421\u0432\u0435\u0434\u0435\u043d\u043e.png",
            "node_path": "locon-3 \u0421\u0432\u0435\u0434\u0435\u043d\u043e.png",
            "offset": [
                -816,
                406
            ],
            "opacity": 1.0,
            "pivot_offset": [
                0.0,
                0.0
            ],
            "position": [
                720,
                223
            ],
            "resource_path": "sprites/locon-3 \u0421\u0432\u0435\u0434\u0435\u043d\u043e.png",
            "rotation": 0.0,
            "scale": [
                1.0,
                1.0
            ],
            "tiles_x": 1,
            "tiles_y": 1,
            "type": "SPRITE",
            "z": -13
        },
        {
            "children": [],
            "frame_index": 0,
            "name": "Layer 55(pasted).png",
            "node_path": "Layer 55(pasted).png",
            "offset": [
                -816,
                406
            ],
            "opacity": 1.0,
            "pivot_offset": [
                0.0,
                0.0
            ],
            "position": [
                1000,
                283
            ],
            "resource_path": "sprites/Layer 55(pasted).png",
            "rotation": 0.0,
            "scale": [
                1.0,
                1.0
            ],
            "tiles_x": 1,
            "tiles_y": 1,
            "type": "SPRITE",
            "z": -14
        },
        {
            "children": [],
            "frame_index": 0,
            "name": "ruca-1 \u0421\u0432\u0435\u0434\u0435\u043d\u043e.png",
            "node_path": "ruca-1 \u0421\u0432\u0435\u0434\u0435\u043d\u043e.png",
            "offset": [
                -816,
                406
            ],
            "opacity": 1.0,
            "pivot_offset": [
                0.0,
                0.0
            ],
            "position": [
                1089,
                334
            ],
            "resource_path": "sprites/ruca-1 \u0421\u0432\u0435\u0434\u0435\u043d\u043e.png",
            "rotation": 0.0,
            "scale": [
                1.0,
                1.0
            ],
            "tiles_x": 1,
            "tiles_y": 1,
            "type": "SPRITE",
            "z": -15
        },
        {
            "children": [],
            "frame_index": 0,
            "name": "shea \u0421\u0432\u0435\u0434\u0435\u043d\u043e.png",
            "node_path": "shea \u0421\u0432\u0435\u0434\u0435\u043d\u043e.png",
            "offset": [
                -816,
                406
            ],
            "opacity": 1.0,
            "pivot_offset": [
                0.0,
                0.0
            ],
            "position": [
                1039,
                214
            ],
            "resource_path": "sprites/shea \u0421\u0432\u0435\u0434\u0435\u043d\u043e.png",
            "rotation": 0.0,
            "scale": [
                1.0,
                1.0
            ],
            "tiles_x": 1,
            "tiles_y": 1,
            "type": "SPRITE",
            "z": -16
        },
        {
            "children": [],
            "frame_index": 0,
            "name": "telo \u0421\u0432\u0435\u0434\u0435\u043d\u043e.png",
            "node_path": "telo \u0421\u0432\u0435\u0434\u0435\u043d\u043e.png",
            "offset": [
                -816,
                406
            ],
            "opacity": 1.0,
            "pivot_offset": [
                0.0,
                0.0
            ],
            "position": [
                838,
                270
            ],
            "resource_path": "sprites/telo \u0421\u0432\u0435\u0434\u0435\u043d\u043e.png",
            "rotation": 0.0,
            "scale": [
                1.0,
                1.0
            ],
            "tiles_x": 1,
            "tiles_y": 1,
            "type": "SPRITE",
            "z": -17
        },
        {
            "children": [],
            "frame_index": 0,
            "name": "locon-4 \u0421\u0432\u0435\u0434\u0435\u043d\u043e.png",
            "node_path": "locon-4 \u0421\u0432\u0435\u0434\u0435\u043d\u043e.png",
            "offset": [
                -816,
                406
            ],
            "opacity": 1.0,
            "pivot_offset": [
                0.0,
                0.0
            ],
            "position": [
                1161,
                126
            ],
            "resource_path": "sprites/locon-4 \u0421\u0432\u0435\u0434\u0435\u043d\u043e.png",
            "rotation": 0.0,
            "scale": [
                1.0,
                1.0
            ],
            "tiles_x": 1,
            "tiles_y": 1,
            "type": "SPRITE",
            "z": -18
        },
        {
            "children": [],
            "frame_index": 0,
            "name": "ruca-2 \u0421\u0432\u0435\u0434\u0435\u043d\u043e.png",
            "node_path": "ruca-2 \u0421\u0432\u0435\u0434\u0435\u043d\u043e.png",
            "offset": [
                -816,
                406
            ],
            "opacity": 1.0,
            "pivot_offset": [
                0.0,
                0.0
            ],
            "position": [
                803,
                397
            ],
            "resource_path": "sprites/ruca-2 \u0421\u0432\u0435\u0434\u0435\u043d\u043e.png",
            "rotation": 0.0,
            "scale": [
                1.0,
                1.0
            ],
            "tiles_x": 1,
            "tiles_y": 1,
            "type": "SPRITE",
            "z": -19
        },
        {
            "children": [],
            "frame_index": 0,
            "name": "\u0421\u043b\u043e\u044e 81 (\u0432\u0441\u0442\u0430\u0432\u043b\u0435\u043d\u043e).png",
            "node_path": "\u0421\u043b\u043e\u044e 81 (\u0432\u0441\u0442\u0430\u0432\u043b\u0435\u043d\u043e).png",
            "offset": [
                -816,
                406
            ],
            "opacity": 1.0,
            "pivot_offset": [
                0.0,
                0.0
            ],
            "position": [
                686,
                86
            ],
            "resource_path": "sprites/\u0421\u043b\u043e\u044e 81 (\u0432\u0441\u0442\u0430\u0432\u043b\u0435\u043d\u043e).png",
            "rotation": 0.0,
            "scale": [
                1.0,
                1.0
            ],
            "tiles_x": 1,
            "tiles_y": 1,
            "type": "SPRITE",
            "z": -20
        },
        {
            "children": [],
            "frame_index": 0,
            "name": "volos-1 \u0421\u0432\u0435\u0434\u0435\u043d\u043e.png",
            "node_path": "volos-1 \u0421\u0432\u0435\u0434\u0435\u043d\u043e.png",
            "offset": [
                -816,
                406
            ],
            "opacity": 1.0,
            "pivot_offset": [
                0.0,
                0.0
            ],
            "position": [
                491,
                186
            ],
            "resource_path": "sprites/volos-1 \u0421\u0432\u0435\u0434\u0435\u043d\u043e.png",
            "rotation": 0.0,
            "scale": [
                1.0,
                1.0
            ],
            "tiles_x": 1,
            "tiles_y": 1,
            "type": "SPRITE",
            "z": -21
        },
        {
            "children": [],
            "frame_index": 0,
            "name": "Layer 73.png",
            "node_path": "Layer 73.png",
            "offset": [
                -816,
                406
            ],
            "opacity": 1.0,
            "pivot_offset": [
                0.0,
                0.0
            ],
            "position": [
                307,
                221
            ],
            "resource_path": "sprites/Layer 73.png",
            "rotation": 0.0,
            "scale": [
                1.0,
                1.0
            ],
            "tiles_x": 1,
            "tiles_y": 1,
            "type": "SPRITE",
            "z": -22
        },
        {
            "children": [],
            "frame_index": 0,
            "name": "shlapa-1 \u0421\u0432\u0435\u0434\u0435\u043d\u043e #1.png",
            "node_path": "shlapa-1 \u0421\u0432\u0435\u0434\u0435\u043d\u043e #1.png",
            "offset": [
                -816,
                406
            ],
            "opacity": 1.0,
            "pivot_offset": [
                0.0,
                0.0
            ],
            "position": [
                152,
                0
            ],
            "resource_path": "sprites/shlapa-1 \u0421\u0432\u0435\u0434\u0435\u043d\u043e #1.png",
            "rotation": 0.0,
            "scale": [
                1.0,
                1.0
            ],
            "tiles_x": 1,
            "tiles_y": 1,
            "type": "SPRITE",
            "z": -23
        },
        {
            "children": [],
            "frame_index": 0,
            "name": "brovi-1 #1.png",
            "node_path": "brovi-1 #1.png",
            "offset": [
                -816,
                406
            ],
            "opacity": 1.0,
            "pivot_offset": [
                0.0,
                0.0
            ],
            "position": [
                397,
                245
            ],
            "resource_path": "sprites/brovi-1 #1.png",
            "rotation": 0.0,
            "scale": [
                1.0,
                1.0
            ],
            "tiles_x": 1,
            "tiles_y": 1,
            "type": "SPRITE",
            "z": -24
        },
        {
            "children": [],
            "frame_index": 0,
            "name": "brovi-2 #1.png",
            "node_path": "brovi-2 #1.png",
            "offset": [
                -816,
                406
            ],
            "opacity": 1.0,
            "pivot_offset": [
                0.0,
                0.0
            ],
            "position": [
                343,
                281
            ],
            "resource_path": "sprites/brovi-2 #1.png",
            "rotation": 0.0,
            "scale": [
                1.0,
                1.0
            ],
            "tiles_x": 1,
            "tiles_y": 1,
            "type": "SPRITE",
            "z": -25
        },
        {
            "children": [],
            "frame_index": 0,
            "name": "veco-1 #1.png",
            "node_path": "veco-1 #1.png",
            "offset": [
                -816,
                406
            ],
            "opacity": 1.0,
            "pivot_offset": [
                0.0,
                0.0
            ],
            "position": [
                416,
                248
            ],
            "resource_path": "sprites/veco-1 #1.png",
            "rotation": 0.0,
            "scale": [
                1.0,
                1.0
            ],
            "tiles_x": 1,
            "tiles_y": 1,
            "type": "SPRITE",
            "z": -26
        },
        {
            "children": [],
            "frame_index": 0,
            "name": "veco-1.1 #1.png",
            "node_path": "veco-1.1 #1.png",
            "offset": [
                -816,
                406
            ],
            "opacity": 1.0,
            "pivot_offset": [
                0.0,
                0.0
            ],
            "position": [
                414,
                276
            ],
            "resource_path": "sprites/veco-1.1 #1.png",
            "rotation": 0.0,
            "scale": [
                1.0,
                1.0
            ],
            "tiles_x": 1,
            "tiles_y": 1,
            "type": "SPRITE",
            "z": -27
        },
        {
            "children": [],
            "frame_index": 0,
            "name": "glaz-1 #1.png",
            "node_path": "glaz-1 #1.png",
            "offset": [
                -816,
                406
            ],
            "opacity": 1.0,
            "pivot_offset": [
                0.0,
                0.0
            ],
            "position": [
                442,
                271
            ],
            "resource_path": "sprites/glaz-1 #1.png",
            "rotation": 0.0,
            "scale": [
                1.0,
                1.0
            ],
            "tiles_x": 1,
            "tiles_y": 1,
            "type": "SPRITE",
            "z": -28
        },
        {
            "children": [],
            "frame_index": 0,
            "name": "veco-2 #1.png",
            "node_path": "veco-2 #1.png",
            "offset": [
                -816,
                406
            ],
            "opacity": 1.0,
            "pivot_offset": [
                0.0,
                0.0
            ],
            "position": [
                346,
                280
            ],
            "resource_path": "sprites/veco-2 #1.png",
            "rotation": 0.0,
            "scale": [
                1.0,
                1.0
            ],
            "tiles_x": 1,
            "tiles_y": 1,
            "type": "SPRITE",
            "z": -29
        },
        {
            "children": [],
            "frame_index": 0,
            "name": "veco-2.1 #1.png",
            "node_path": "veco-2.1 #1.png",
            "offset": [
                -816,
                406
            ],
            "opacity": 1.0,
            "pivot_offset": [
                0.0,
                0.0
            ],
            "position": [
                349,
                304
            ],
            "resource_path": "sprites/veco-2.1 #1.png",
            "rotation": 0.0,
            "scale": [
                1.0,
                1.0
            ],
            "tiles_x": 1,
            "tiles_y": 1,
            "type": "SPRITE",
            "z": -30
        },
        {
            "children": [],
            "frame_index": 0,
            "name": "glaz-2 #1.png",
            "node_path": "glaz-2 #1.png",
            "offset": [
                -816,
                406
            ],
            "opacity": 1.0,
            "pivot_offset": [
                0.0,
                0.0
            ],
            "position": [
                362,
                300
            ],
            "resource_path": "sprites/glaz-2 #1.png",
            "rotation": 0.0,
            "scale": [
                1.0,
                1.0
            ],
            "tiles_x": 1,
            "tiles_y": 1,
            "type": "SPRITE",
            "z": -31
        },
        {
            "children": [],
            "frame_index": 0,
            "name": "rot \u0421\u0432\u0435\u0434\u0435\u043d\u043e #1.png",
            "node_path": "rot \u0421\u0432\u0435\u0434\u0435\u043d\u043e #1.png",
            "offset": [
                -816,
                406
            ],
            "opacity": 1.0,
            "pivot_offset": [
                0.0,
                0.0
            ],
            "position": [
                400,
                365
            ],
            "resource_path": "sprites/rot \u0421\u0432\u0435\u0434\u0435\u043d\u043e #1.png",
            "rotation": 0.0,
            "scale": [
                1.0,
                1.0
            ],
            "tiles_x": 1,
            "tiles_y": 1,
            "type": "SPRITE",
            "z": -32
        },
        {
            "children": [],
            "frame_index": 0,
            "name": "golova \u0421\u0432\u0435\u0434\u0435\u043d\u043e #1.png",
            "node_path": "golova \u0421\u0432\u0435\u0434\u0435\u043d\u043e #1.png",
            "offset": [
                -816,
                406
            ],
            "opacity": 1.0,
            "pivot_offset": [
                0.0,
                0.0
            ],
            "position": [
                166,
                21
            ],
            "resource_path": "sprites/golova \u0421\u0432\u0435\u0434\u0435\u043d\u043e #1.png",
            "rotation": 0.0,
            "scale": [
                1.0,
                1.0
            ],
            "tiles_x": 1,
            "tiles_y": 1,
            "type": "SPRITE",
            "z": -33
        },
        {
            "children": [],
            "frame_index": 0,
            "name": "Layer 64(pasted).png",
            "node_path": "Layer 64(pasted).png",
            "offset": [
                -816,
                406
            ],
            "opacity": 1.0,
            "pivot_offset": [
                0.0,
                0.0
            ],
            "position": [
                464,
                366
            ],
            "resource_path": "sprites/Layer 64(pasted).png",
            "rotation": 0.0,
            "scale": [
                1.0,
                1.0
            ],
            "tiles_x": 1,
            "tiles_y": 1,
            "type": "SPRITE",
            "z": -34
        },
        {
            "children": [],
            "frame_index": 0,
            "name": "volos-2 \u0421\u0432\u0435\u0434\u0435\u043d\u043e.png",
            "node_path": "volos-2 \u0421\u0432\u0435\u0434\u0435\u043d\u043e.png",
            "offset": [
                -816,
                406
            ],
            "opacity": 1.0,
            "pivot_offset": [
                0.0,
                0.0
            ],
            "position": [
                244,
                230
            ],
            "resource_path": "sprites/volos-2 \u0421\u0432\u0435\u0434\u0435\u043d\u043e.png",
            "rotation": 0.0,
            "scale": [
                1.0,
                1.0
            ],
            "tiles_x": 1,
            "tiles_y": 1,
            "type": "SPRITE",
            "z": -35
        },
        {
            "children": [],
            "frame_index": 0,
            "name": "shlapa-1.1 \u0421\u0432\u0435\u0434\u0435\u043d\u043e.png",
            "node_path": "shlapa-1.1 \u0421\u0432\u0435\u0434\u0435\u043d\u043e.png",
            "offset": [
                -816,
                406
            ],
            "opacity": 1.0,
            "pivot_offset": [
                0.0,
                0.0
            ],
            "position": [
                220,
                177
            ],
            "resource_path": "sprites/shlapa-1.1 \u0421\u0432\u0435\u0434\u0435\u043d\u043e.png",
            "rotation": 0.0,
            "scale": [
                1.0,
                1.0
            ],
            "tiles_x": 1,
            "tiles_y": 1,
            "type": "SPRITE",
            "z": -36
        },
        {
            "children": [],
            "frame_index": 0,
            "name": "telo \u0421\u0432\u0435\u0434\u0435\u043d\u043e #1.png",
            "node_path": "telo \u0421\u0432\u0435\u0434\u0435\u043d\u043e #1.png",
            "offset": [
                -816,
                406
            ],
            "opacity": 1.0,
            "pivot_offset": [
                0.0,
                0.0
            ],
            "position": [
                239,
                386
            ],
            "resource_path": "sprites/telo \u0421\u0432\u0435\u0434\u0435\u043d\u043e #1.png",
            "rotation": 0.0,
            "scale": [
                1.0,
                1.0
            ],
            "tiles_x": 1,
            "tiles_y": 1,
            "type": "SPRITE",
            "z": -37
        },
        {
            "children": [],
            "frame_index": 0,
            "name": "shea \u0421\u0432\u0435\u0434\u0435\u043d\u043e #1.png",
            "node_path": "shea \u0421\u0432\u0435\u0434\u0435\u043d\u043e #1.png",
            "offset": [
                -816,
                406
            ],
            "opacity": 1.0,
            "pivot_offset": [
                0.0,
                0.0
            ],
            "position": [
                445,
                313
            ],
            "resource_path": "sprites/shea \u0421\u0432\u0435\u0434\u0435\u043d\u043e #1.png",
            "rotation": 0.0,
            "scale": [
                1.0,
                1.0
            ],
            "tiles_x": 1,
            "tiles_y": 1,
            "type": "SPRITE",
            "z": -38
        },
        {
            "children": [],
            "frame_index": 0,
            "name": "Layer 65.png",
            "node_path": "Layer 65.png",
            "offset": [
                -816,
                406
            ],
            "opacity": 1.0,
            "pivot_offset": [
                0.0,
                0.0
            ],
            "position": [
                447,
                382
            ],
            "resource_path": "sprites/Layer 65.png",
            "rotation": 0.0,
            "scale": [
                1.0,
                1.0
            ],
            "tiles_x": 1,
            "tiles_y": 1,
            "type": "SPRITE",
            "z": -39
        }
    ]
}