{
    "name": "mouth",
    "nodes": [
        {
            "children": [],
            "frame_index": 0,
            "name": "\u0413\u0440\u0443\u043f\u043f\u0430 \u0441\u043b\u043e\u0451\u0432.png",
            "node_path": "\u0413\u0440\u0443\u043f\u043f\u0430 \u0441\u043b\u043e\u0451\u0432.png",
            "offset": [
                -72,
                50
            ],
            "opacity": 1.0,
            "pivot_offset": [
                0.0,
                0.0
            ],
            "position": [
                9,
                3
            ],
            "resource_path": "sprites/\u0413\u0440\u0443\u043f\u043f\u0430 \u0441\u043b\u043e\u0451\u0432.png",
            "rotation": 0.0,
            "scale": [
                1.0,
                1.0
            ],
            "tiles_x": 1,
            "tiles_y": 2,
            "type": "SPRITE",
            "z": 0
        },
        {
            "children": [],
            "frame_index": 0,
            "name": "\u0413\u0440\u0443\u043f\u043f\u0430 \u0441\u043b\u043e\u0451\u0432 #1.png",
            "node_path": "\u0413\u0440\u0443\u043f\u043f\u0430 \u0441\u043b\u043e\u0451\u0432 #1.png",
            "offset": [
                -72,
                50
            ],
            "opacity": 1.0,
            "pivot_offset": [
                0.0,
                0.0
            ],
            "position": [
                4,
                4
            ],
            "resource_path": "sprites/\u0413\u0440\u0443\u043f\u043f\u0430 \u0441\u043b\u043e\u0451\u0432 #1.png",
            "rotation": 0.0,
            "scale": [
                1.0,
                1.0
            ],
            "tiles_x": 2,
            "tiles_y": 3,
            "type": "SPRITE",
            "z": -1
        }
    ]
}