{
    "name": "392-l",
    "nodes": [
        {
            "children": [],
            "frame_index": 0,
            "name": "Layer 17.png",
            "node_path": "Layer 17.png",
            "offset": [
                -1536,
                672
            ],
            "opacity": 1.0,
            "pivot_offset": [
                0.0,
                0.0
            ],
            "position": [
                38,
                552
            ],
            "resource_path": "sprites/Layer 17.png",
            "rotation": 0.0,
            "scale": [
                1.0,
                1.0
            ],
            "tiles_x": 1,
            "tiles_y": 1,
            "type": "SPRITE",
            "z": 0
        },
        {
            "children": [],
            "frame_index": 0,
            "name": "Layer 14.png",
            "node_path": "Layer 14.png",
            "offset": [
                -1536,
                672
            ],
            "opacity": 1.0,
            "pivot_offset": [
                0.0,
                0.0
            ],
            "position": [
                1300,
                64
            ],
            "resource_path": "sprites/Layer 14.png",
            "rotation": 0.0,
            "scale": [
                1.0,
                1.0
            ],
            "tiles_x": 1,
            "tiles_y": 1,
            "type": "SPRITE",
            "z": -1
        }
    ]
}