{
    "name": "hand",
    "nodes": [
        {
            "children": [],
            "frame_index": 0,
            "name": "Layer 47.png",
            "node_path": "Layer 47.png",
            "offset": [
                -593,
                268
            ],
            "opacity": 1.0,
            "pivot_offset": [
                0.0,
                0.0
            ],
            "position": [
                13,
                5
            ],
            "resource_path": "sprites/Layer 47.png",
            "rotation": 0.0,
            "scale": [
                1.0,
                1.0
            ],
            "tiles_x": 1,
            "tiles_y": 1,
            "type": "SPRITE",
            "z": -2
        }
    ]
}