{
    "name": "220-layers",
    "nodes": [
        {
            "children": [],
            "frame_index": 0,
            "name": "\u0421\u043b\u043e\u0439 13 (\u0432\u0441\u0442\u0430\u0432\u043b\u0435\u043d\u043e).png",
            "node_path": "\u0421\u043b\u043e\u0439 13 (\u0432\u0441\u0442\u0430\u0432\u043b\u0435\u043d\u043e).png",
            "offset": [
                -1178,
                424
            ],
            "opacity": 1.0,
            "pivot_offset": [
                0.0,
                0.0
            ],
            "position": [
                801,
                16
            ],
            "resource_path": "sprites/\u0421\u043b\u043e\u0439 13 (\u0432\u0441\u0442\u0430\u0432\u043b\u0435\u043d\u043e).png",
            "rotation": 0.0,
            "scale": [
                1.0,
                1.0
            ],
            "tiles_x": 1,
            "tiles_y": 1,
            "type": "SPRITE",
            "z": 0
        },
        {
            "children": [],
            "frame_index": 0,
            "name": "\u0421\u043b\u043e\u0439 12 (\u0432\u0441\u0442\u0430\u0432\u043b\u0435\u043d\u043e).png",
            "node_path": "\u0421\u043b\u043e\u0439 12 (\u0432\u0441\u0442\u0430\u0432\u043b\u0435\u043d\u043e).png",
            "offset": [
                -1178,
                424
            ],
            "opacity": 1.0,
            "pivot_offset": [
                0.0,
                0.0
            ],
            "position": [
                365,
                326
            ],
            "resource_path": "sprites/\u0421\u043b\u043e\u0439 12 (\u0432\u0441\u0442\u0430\u0432\u043b\u0435\u043d\u043e).png",
            "rotation": 0.0,
            "scale": [
                1.0,
                1.0
            ],
            "tiles_x": 1,
            "tiles_y": 1,
            "type": "SPRITE",
            "z": -1
        },
        {
            "children": [],
            "frame_index": 0,
            "name": "color.png",
            "node_path": "color.png",
            "offset": [
                -1178,
                424
            ],
            "opacity": 1.0,
            "pivot_offset": [
                0.0,
                0.0
            ],
            "position": [
                0,
                0
            ],
            "resource_path": "sprites/color.png",
            "rotation": 0.0,
            "scale": [
                1.0,
                1.0
            ],
            "tiles_x": 1,
            "tiles_y": 1,
            "type": "SPRITE",
            "z": -3
        }
    ]
}