{
    "name": "130-bg",
    "nodes": [
        {
            "children": [],
            "frame_index": 0,
            "name": "Layer 81.png",
            "node_path": "Layer 81.png",
            "offset": [
                -1750,
                644
            ],
            "opacity": 1.0,
            "pivot_offset": [
                0.0,
                0.0
            ],
            "position": [
                0,
                718
            ],
            "resource_path": "sprites/Layer 81.png",
            "rotation": 0.0,
            "scale": [
                1.0,
                1.0
            ],
            "tiles_x": 1,
            "tiles_y": 1,
            "type": "SPRITE",
            "z": 0
        },
        {
            "children": [],
            "frame_index": 0,
            "name": "Layer 94.png",
            "node_path": "Layer 94.png",
            "offset": [
                -1750,
                644
            ],
            "opacity": 1.0,
            "pivot_offset": [
                0.0,
                0.0
            ],
            "position": [
                2756,
                14
            ],
            "resource_path": "sprites/Layer 94.png",
            "rotation": 0.0,
            "scale": [
                1.0,
                1.0
            ],
            "tiles_x": 1,
            "tiles_y": 1,
            "type": "SPRITE",
            "z": -1
        },
        {
            "children": [],
            "frame_index": 0,
            "name": "Layer 75(pasted).png",
            "node_path": "Layer 75(pasted).png",
            "offset": [
                -1750,
                644
            ],
            "opacity": 1.0,
            "pivot_offset": [
                0.0,
                0.0
            ],
            "position": [
                0,
                66
            ],
            "resource_path": "sprites/Layer 75(pasted).png",
            "rotation": 0.0,
            "scale": [
                1.0,
                1.0
            ],
            "tiles_x": 1,
            "tiles_y": 1,
            "type": "SPRITE",
            "z": -2
        },
        {
            "children": [],
            "frame_index": 0,
            "name": "Layer 78(pasted).png",
            "node_path": "Layer 78(pasted).png",
            "offset": [
                -1750,
                644
            ],
            "opacity": 1.0,
            "pivot_offset": [
                0.0,
                0.0
            ],
            "position": [
                303,
                106
            ],
            "resource_path": "sprites/Layer 78(pasted).png",
            "rotation": 0.0,
            "scale": [
                1.0,
                1.0
            ],
            "tiles_x": 1,
            "tiles_y": 1,
            "type": "SPRITE",
            "z": -3
        },
        {
            "children": [],
            "frame_index": 0,
            "name": "Layer 99(pasted).png",
            "node_path": "Layer 99(pasted).png",
            "offset": [
                -1750,
                644
            ],
            "opacity": 1.0,
            "pivot_offset": [
                0.0,
                0.0
            ],
            "position": [
                2392,
                928
            ],
            "resource_path": "sprites/Layer 99(pasted).png",
            "rotation": 0.0,
            "scale": [
                1.0,
                1.0
            ],
            "tiles_x": 1,
            "tiles_y": 1,
            "type": "SPRITE",
            "z": -4
        },
        {
            "children": [],
            "frame_index": 0,
            "name": "Layer 87.png",
            "node_path": "Layer 87.png",
            "offset": [
                -1750,
                644
            ],
            "opacity": 1.0,
            "pivot_offset": [
                0.0,
                0.0
            ],
            "position": [
                2264,
                490
            ],
            "resource_path": "sprites/Layer 87.png",
            "rotation": 0.0,
            "scale": [
                1.0,
                1.0
            ],
            "tiles_x": 1,
            "tiles_y": 1,
            "type": "SPRITE",
            "z": -5
        },
        {
            "children": [],
            "frame_index": 0,
            "name": "Layer 70(pasted).png",
            "node_path": "Layer 70(pasted).png",
            "offset": [
                -1750,
                644
            ],
            "opacity": 1.0,
            "pivot_offset": [
                0.0,
                0.0
            ],
            "position": [
                1642,
                996
            ],
            "resource_path": "sprites/Layer 70(pasted).png",
            "rotation": 0.0,
            "scale": [
                1.0,
                1.0
            ],
            "tiles_x": 1,
            "tiles_y": 1,
            "type": "SPRITE",
            "z": -6
        },
        {
            "children": [],
            "frame_index": 0,
            "name": "Layer 84 Merged.png",
            "node_path": "Layer 84 Merged.png",
            "offset": [
                -1750,
                644
            ],
            "opacity": 1.0,
            "pivot_offset": [
                0.0,
                0.0
            ],
            "position": [
                1409,
                387
            ],
            "resource_path": "sprites/Layer 84 Merged.png",
            "rotation": 0.0,
            "scale": [
                1.0,
                1.0
            ],
            "tiles_x": 1,
            "tiles_y": 1,
            "type": "SPRITE",
            "z": -7
        },
        {
            "children": [],
            "frame_index": 0,
            "name": "Layer 97.png",
            "node_path": "Layer 97.png",
            "offset": [
                -1750,
                644
            ],
            "opacity": 1.0,
            "pivot_offset": [
                0.0,
                0.0
            ],
            "position": [
                0,
                0
            ],
            "resource_path": "sprites/Layer 97.png",
            "rotation": 0.0,
            "scale": [
                1.0,
                1.0
            ],
            "tiles_x": 1,
            "tiles_y": 1,
            "type": "SPRITE",
            "z": -8
        }
    ]
}