{
    "name": "462-l",
    "nodes": [
        {
            "children": [],
            "frame_index": 0,
            "name": "layer000.png",
            "node_path": "layer000.png",
            "offset": [
                -448,
                256
            ],
            "opacity": 1.0,
            "pivot_offset": [
                0.0,
                0.0
            ],
            "position": [
                -91,
                -233
            ],
            "resource_path": "sprites/layer000.png",
            "rotation": 0.0,
            "scale": [
                1.0,
                1.0
            ],
            "tiles_x": 1,
            "tiles_y": 1,
            "type": "SPRITE",
            "z": 0
        },
        {
            "children": [],
            "frame_index": 0,
            "name": "background.png",
            "node_path": "background.png",
            "offset": [
                -448,
                256
            ],
            "opacity": 1.0,
            "pivot_offset": [
                0.0,
                0.0
            ],
            "position": [
                -128,
                -256
            ],
            "resource_path": "sprites/background.png",
            "rotation": 0.0,
            "scale": [
                1.0,
                1.0
            ],
            "tiles_x": 1,
            "tiles_y": 1,
            "type": "SPRITE",
            "z": -2
        }
    ]
}